{
  "$schema": "../../node_modules/ng-packagr/ng-package.schema.json",
  "dest": "../../dist/auth",
  "lib": {
    "entryFile": "src/public_api.ts",
    "umdModuleIds": {
      "@ngcore/core": "ngcore-core",
      "@ngcore/base": "ngcore-base"
    }
  }
}